// Jest Snapshot v1, https://goo.gl/fbAQLP

exports[`ViewFilterForm component Default view filter component 1`] = `
<div
  class="filters__content"
>
  <div>
    <div
      class="filters__none"
    >
      <div
        class="filters__none-title"
      >
        
        viewFilterContext.noFilterTitle
      
      </div>
       
      <div
        class="filters__none-description"
      >
        
        viewFilterContext.noFilterText
      
      </div>
    </div>
  </div>
   
  <!---->
   
  <div
    class="filters__footer"
  >
    <div
      class="filters__actions"
    >
      <a
        class="filters__add"
      >
        <i
          class="filters__add-icon iconoir-plus"
        />
        
        viewFilterContext.addFilter
      </a>
       
      <a
        class="filters__add"
      >
        <i
          class="filters__add-icon iconoir-plus"
        />
        
        viewFilterContext.addFilterGroup
      </a>
    </div>
     
    <!---->
  </div>
</div>
`;

exports[`ViewFilterForm component Full view filter component 1`] = `
<div
  class="filters__content"
>
  <!---->
   
  <div
    class="filters__items filters__items--with-padding filters__items--scrollable"
  >
    <div
      class="filters__item-wrapper"
    >
      <div
        class="filters__item filters__item--level-1"
      >
        <div>
          <span
            class="filters__operator-where"
          >
            viewFilterContext.where
          </span>
           
          <!---->
           
          <!---->
        </div>
         
        <div
          class="filters__condition-item"
        >
          <div
            class="filters__field"
          >
            <div
              class="dropdown dropdown--small"
              tabindex="0"
            >
              <a
                class="dropdown__selected"
              >
                <!---->
                 
                <!---->
                 
                <span
                  class="dropdown__selected-text"
                >
                  Name
                </span>
                 
                <i
                  class="dropdown__toggle-icon iconoir-nav-arrow-down"
                />
              </a>
               
              <div
                class="dropdown__items hidden dropdown__items--fixed"
              >
                <div
                  class="select__search"
                >
                  <i
                    class="select__search-icon iconoir-search"
                  />
                   
                  <input
                    class="select__search-input"
                    placeholder="action.search"
                    tabindex="0"
                    type="text"
                  />
                </div>
                 
                <ul
                  class="select__items select__items--no-max-height"
                  tabindex=""
                >
                  <li
                    class="select__item select__item--no-options active"
                  >
                    <a
                      class="select__item-link"
                    >
                      <div
                        class="select__item-name"
                      >
                        <!---->
                         
                        <!---->
                         
                        <span
                          class="select__item-name-text"
                          title="Name"
                        >
                          Name
                        </span>
                      </div>
                       
                      <!---->
                    </a>
                     
                    <i
                      class="select__item-active-icon iconoir-check"
                    />
                  </li>
                  <li
                    class="select__item select__item--no-options"
                  >
                    <a
                      class="select__item-link"
                    >
                      <div
                        class="select__item-name"
                      >
                        <!---->
                         
                        <!---->
                         
                        <span
                          class="select__item-name-text"
                          title="Stars"
                        >
                          Stars
                        </span>
                      </div>
                       
                      <!---->
                    </a>
                     
                    <i
                      class="select__item-active-icon iconoir-check"
                    />
                  </li>
                  <li
                    class="select__item select__item--no-options"
                  >
                    <a
                      class="select__item-link"
                    >
                      <div
                        class="select__item-name"
                      >
                        <!---->
                         
                        <!---->
                         
                        <span
                          class="select__item-name-text"
                          title="Flag"
                        >
                          Flag
                        </span>
                      </div>
                       
                      <!---->
                    </a>
                     
                    <i
                      class="select__item-active-icon iconoir-check"
                    />
                  </li>
                </ul>
                 
                <!---->
                 
                <!---->
              </div>
            </div>
          </div>
           
          <div
            class="filters__type"
          >
            <div
              class="dropdown dropdown--small"
              tabindex="0"
            >
              <a
                class="dropdown__selected"
              >
                <!---->
                 
                <!---->
                 
                <span
                  class="dropdown__selected-text"
                >
                  viewFilter.is
                </span>
                 
                <i
                  class="dropdown__toggle-icon iconoir-nav-arrow-down"
                />
              </a>
               
              <div
                class="dropdown__items hidden dropdown__items--fixed"
              >
                <div
                  class="select__search"
                >
                  <i
                    class="select__search-icon iconoir-search"
                  />
                   
                  <input
                    class="select__search-input"
                    placeholder="action.search"
                    tabindex="0"
                    type="text"
                  />
                </div>
                 
                <ul
                  class="select__items select__items--no-max-height"
                  tabindex=""
                >
                  <li
                    class="select__item select__item--no-options active"
                  >
                    <a
                      class="select__item-link"
                    >
                      <div
                        class="select__item-name"
                      >
                        <!---->
                         
                        <!---->
                         
                        <span
                          class="select__item-name-text"
                          title="viewFilter.is"
                        >
                          viewFilter.is
                        </span>
                      </div>
                       
                      <!---->
                    </a>
                     
                    <i
                      class="select__item-active-icon iconoir-check"
                    />
                  </li>
                  <li
                    class="select__item select__item--no-options"
                  >
                    <a
                      class="select__item-link"
                    >
                      <div
                        class="select__item-name"
                      >
                        <!---->
                         
                        <!---->
                         
                        <span
                          class="select__item-name-text"
                          title="viewFilter.isNot"
                        >
                          viewFilter.isNot
                        </span>
                      </div>
                       
                      <!---->
                    </a>
                     
                    <i
                      class="select__item-active-icon iconoir-check"
                    />
                  </li>
                  <li
                    class="select__item select__item--no-options"
                  >
                    <a
                      class="select__item-link"
                    >
                      <div
                        class="select__item-name"
                      >
                        <!---->
                         
                        <!---->
                         
                        <span
                          class="select__item-name-text"
                          title="viewFilter.contains"
                        >
                          viewFilter.contains
                        </span>
                      </div>
                       
                      <!---->
                    </a>
                     
                    <i
                      class="select__item-active-icon iconoir-check"
                    />
                  </li>
                  <li
                    class="select__item select__item--no-options"
                  >
                    <a
                      class="select__item-link"
                    >
                      <div
                        class="select__item-name"
                      >
                        <!---->
                         
                        <!---->
                         
                        <span
                          class="select__item-name-text"
                          title="viewFilter.containsNot"
                        >
                          viewFilter.containsNot
                        </span>
                      </div>
                       
                      <!---->
                    </a>
                     
                    <i
                      class="select__item-active-icon iconoir-check"
                    />
                  </li>
                  <li
                    class="select__item select__item--no-options"
                  >
                    <a
                      class="select__item-link"
                    >
                      <div
                        class="select__item-name"
                      >
                        <!---->
                         
                        <!---->
                         
                        <span
                          class="select__item-name-text"
                          title="viewFilter.containsWord"
                        >
                          viewFilter.containsWord
                        </span>
                      </div>
                       
                      <!---->
                    </a>
                     
                    <i
                      class="select__item-active-icon iconoir-check"
                    />
                  </li>
                  <li
                    class="select__item select__item--no-options"
                  >
                    <a
                      class="select__item-link"
                    >
                      <div
                        class="select__item-name"
                      >
                        <!---->
                         
                        <!---->
                         
                        <span
                          class="select__item-name-text"
                          title="viewFilter.doesntContainWord"
                        >
                          viewFilter.doesntContainWord
                        </span>
                      </div>
                       
                      <!---->
                    </a>
                     
                    <i
                      class="select__item-active-icon iconoir-check"
                    />
                  </li>
                  <li
                    class="select__item select__item--no-options"
                  >
                    <a
                      class="select__item-link"
                    >
                      <div
                        class="select__item-name"
                      >
                        <!---->
                         
                        <!---->
                         
                        <span
                          class="select__item-name-text"
                          title="viewFilter.lengthIsLowerThan"
                        >
                          viewFilter.lengthIsLowerThan
                        </span>
                      </div>
                       
                      <!---->
                    </a>
                     
                    <i
                      class="select__item-active-icon iconoir-check"
                    />
                  </li>
                  <li
                    class="select__item select__item--no-options"
                  >
                    <a
                      class="select__item-link"
                    >
                      <div
                        class="select__item-name"
                      >
                        <!---->
                         
                        <!---->
                         
                        <span
                          class="select__item-name-text"
                          title="viewFilter.isEmpty"
                        >
                          viewFilter.isEmpty
                        </span>
                      </div>
                       
                      <!---->
                    </a>
                     
                    <i
                      class="select__item-active-icon iconoir-check"
                    />
                  </li>
                  <li
                    class="select__item select__item--no-options"
                  >
                    <a
                      class="select__item-link"
                    >
                      <div
                        class="select__item-name"
                      >
                        <!---->
                         
                        <!---->
                         
                        <span
                          class="select__item-name-text"
                          title="viewFilter.isNotEmpty"
                        >
                          viewFilter.isNotEmpty
                        </span>
                      </div>
                       
                      <!---->
                    </a>
                     
                    <i
                      class="select__item-active-icon iconoir-check"
                    />
                  </li>
                </ul>
                 
                <!---->
                 
                <!---->
              </div>
            </div>
          </div>
           
          <div
            class="filters__value filters__value--with-after-input"
          >
            <input
              class="input filters__value-input input--small"
              type="text"
            />
              
            <!---->
             
            <!---->
          </div>
           
          <a
            class="filters__remove"
          >
            <i
              class="iconoir-bin"
            />
          </a>
        </div>
      </div>
    </div>
    <div
      class="filters__item-wrapper"
    >
      <div
        class="filters__item filters__item--level-1"
      >
        <div>
          <!---->
           
          <div
            class="dropdown dropdown--small"
            tabindex="0"
          >
            <a
              class="dropdown__selected"
            >
              <!---->
               
              <!---->
               
              <span
                class="dropdown__selected-text"
              >
                viewFilterContext.and
              </span>
               
              <i
                class="dropdown__toggle-icon iconoir-nav-arrow-down"
              />
            </a>
             
            <div
              class="dropdown__items hidden dropdown__items--fixed"
            >
              <!---->
               
              <ul
                class="select__items select__items--no-max-height"
                tabindex=""
              >
                <li
                  class="select__item select__item--no-options active"
                >
                  <a
                    class="select__item-link"
                  >
                    <div
                      class="select__item-name"
                    >
                      <!---->
                       
                      <!---->
                       
                      <span
                        class="select__item-name-text"
                        title="viewFilterContext.and"
                      >
                        viewFilterContext.and
                      </span>
                    </div>
                     
                    <!---->
                  </a>
                   
                  <i
                    class="select__item-active-icon iconoir-check"
                  />
                </li>
                 
                <li
                  class="select__item select__item--no-options"
                >
                  <a
                    class="select__item-link"
                  >
                    <div
                      class="select__item-name"
                    >
                      <!---->
                       
                      <!---->
                       
                      <span
                        class="select__item-name-text"
                        title="viewFilterContext.or"
                      >
                        viewFilterContext.or
                      </span>
                    </div>
                     
                    <!---->
                  </a>
                   
                  <i
                    class="select__item-active-icon iconoir-check"
                  />
                </li>
              </ul>
               
              <!---->
               
              <!---->
            </div>
          </div>
           
          <!---->
        </div>
         
        <div
          class="filters__condition-item"
        >
          <div
            class="filters__field"
          >
            <div
              class="dropdown dropdown--small"
              tabindex="0"
            >
              <a
                class="dropdown__selected"
              >
                <!---->
                 
                <!---->
                 
                <span
                  class="dropdown__selected-text"
                >
                  Stars
                </span>
                 
                <i
                  class="dropdown__toggle-icon iconoir-nav-arrow-down"
                />
              </a>
               
              <div
                class="dropdown__items hidden dropdown__items--fixed"
              >
                <div
                  class="select__search"
                >
                  <i
                    class="select__search-icon iconoir-search"
                  />
                   
                  <input
                    class="select__search-input"
                    placeholder="action.search"
                    tabindex="0"
                    type="text"
                  />
                </div>
                 
                <ul
                  class="select__items select__items--no-max-height"
                  tabindex=""
                >
                  <li
                    class="select__item select__item--no-options"
                  >
                    <a
                      class="select__item-link"
                    >
                      <div
                        class="select__item-name"
                      >
                        <!---->
                         
                        <!---->
                         
                        <span
                          class="select__item-name-text"
                          title="Name"
                        >
                          Name
                        </span>
                      </div>
                       
                      <!---->
                    </a>
                     
                    <i
                      class="select__item-active-icon iconoir-check"
                    />
                  </li>
                  <li
                    class="select__item select__item--no-options active"
                  >
                    <a
                      class="select__item-link"
                    >
                      <div
                        class="select__item-name"
                      >
                        <!---->
                         
                        <!---->
                         
                        <span
                          class="select__item-name-text"
                          title="Stars"
                        >
                          Stars
                        </span>
                      </div>
                       
                      <!---->
                    </a>
                     
                    <i
                      class="select__item-active-icon iconoir-check"
                    />
                  </li>
                  <li
                    class="select__item select__item--no-options"
                  >
                    <a
                      class="select__item-link"
                    >
                      <div
                        class="select__item-name"
                      >
                        <!---->
                         
                        <!---->
                         
                        <span
                          class="select__item-name-text"
                          title="Flag"
                        >
                          Flag
                        </span>
                      </div>
                       
                      <!---->
                    </a>
                     
                    <i
                      class="select__item-active-icon iconoir-check"
                    />
                  </li>
                </ul>
                 
                <!---->
                 
                <!---->
              </div>
            </div>
          </div>
           
          <div
            class="filters__type"
          >
            <div
              class="dropdown dropdown--small"
              tabindex="0"
            >
              <a
                class="dropdown__selected"
              >
                <!---->
                 
                <!---->
                 
                <span
                  class="dropdown__selected-text"
                >
                  viewFilter.is
                </span>
                 
                <i
                  class="dropdown__toggle-icon iconoir-nav-arrow-down"
                />
              </a>
               
              <div
                class="dropdown__items hidden dropdown__items--fixed"
              >
                <div
                  class="select__search"
                >
                  <i
                    class="select__search-icon iconoir-search"
                  />
                   
                  <input
                    class="select__search-input"
                    placeholder="action.search"
                    tabindex="0"
                    type="text"
                  />
                </div>
                 
                <ul
                  class="select__items select__items--no-max-height"
                  tabindex=""
                >
                  <li
                    class="select__item select__item--no-options active"
                  >
                    <a
                      class="select__item-link"
                    >
                      <div
                        class="select__item-name"
                      >
                        <!---->
                         
                        <!---->
                         
                        <span
                          class="select__item-name-text"
                          title="viewFilter.is"
                        >
                          viewFilter.is
                        </span>
                      </div>
                       
                      <!---->
                    </a>
                     
                    <i
                      class="select__item-active-icon iconoir-check"
                    />
                  </li>
                  <li
                    class="select__item select__item--no-options"
                  >
                    <a
                      class="select__item-link"
                    >
                      <div
                        class="select__item-name"
                      >
                        <!---->
                         
                        <!---->
                         
                        <span
                          class="select__item-name-text"
                          title="viewFilter.isNot"
                        >
                          viewFilter.isNot
                        </span>
                      </div>
                       
                      <!---->
                    </a>
                     
                    <i
                      class="select__item-active-icon iconoir-check"
                    />
                  </li>
                  <li
                    class="select__item select__item--no-options"
                  >
                    <a
                      class="select__item-link"
                    >
                      <div
                        class="select__item-name"
                      >
                        <!---->
                         
                        <!---->
                         
                        <span
                          class="select__item-name-text"
                          title="viewFilter.higherThan"
                        >
                          viewFilter.higherThan
                        </span>
                      </div>
                       
                      <!---->
                    </a>
                     
                    <i
                      class="select__item-active-icon iconoir-check"
                    />
                  </li>
                  <li
                    class="select__item select__item--no-options"
                  >
                    <a
                      class="select__item-link"
                    >
                      <div
                        class="select__item-name"
                      >
                        <!---->
                         
                        <!---->
                         
                        <span
                          class="select__item-name-text"
                          title="viewFilter.lowerThan"
                        >
                          viewFilter.lowerThan
                        </span>
                      </div>
                       
                      <!---->
                    </a>
                     
                    <i
                      class="select__item-active-icon iconoir-check"
                    />
                  </li>
                </ul>
                 
                <!---->
                 
                <!---->
              </div>
            </div>
          </div>
           
          <div
            class="filters__value filters__value--with-after-input"
          >
            <div
              class="filters__value-rating"
            >
              <div
                class="rating color--dark-orange editing"
              >
                <i
                  class="rating__star baserow-icon-star rating__star--selected"
                />
                <i
                  class="rating__star baserow-icon-star rating__star--selected"
                />
                <i
                  class="rating__star baserow-icon-star"
                />
                <i
                  class="rating__star baserow-icon-star"
                />
                <i
                  class="rating__star baserow-icon-star"
                />
              </div>
            </div>
              
            <!---->
             
            <!---->
          </div>
           
          <a
            class="filters__remove"
          >
            <i
              class="iconoir-bin"
            />
          </a>
        </div>
      </div>
    </div>
     
  </div>
   
  <div
    class="filters__footer"
  >
    <div
      class="filters__actions"
    >
      <a
        class="filters__add"
      >
        <i
          class="filters__add-icon iconoir-plus"
        />
        
        viewFilterContext.addFilter
      </a>
       
      <a
        class="filters__add"
      >
        <i
          class="filters__add-icon iconoir-plus"
        />
        
        viewFilterContext.addFilterGroup
      </a>
    </div>
     
    <div>
      <div
        class="switch switch--small"
      >
        <div
          class="switch__label"
        >
          viewFilterContext.disableAllFilters
        </div>
      </div>
    </div>
  </div>
</div>
`;

exports[`ViewFilterForm component Test rating filter 1`] = `
<div
  class="filters__content"
>
  <!---->
   
  <div
    class="filters__items filters__items--with-padding filters__items--scrollable"
  >
    <div
      class="filters__item-wrapper"
    >
      <div
        class="filters__item filters__item--level-1"
      >
        <div>
          <span
            class="filters__operator-where"
          >
            viewFilterContext.where
          </span>
           
          <!---->
           
          <!---->
        </div>
         
        <div
          class="filters__condition-item"
        >
          <div
            class="filters__field"
          >
            <div
              class="dropdown dropdown--small"
              tabindex="0"
            >
              <a
                class="dropdown__selected"
              >
                <!---->
                 
                <!---->
                 
                <span
                  class="dropdown__selected-text"
                >
                  Stars
                </span>
                 
                <i
                  class="dropdown__toggle-icon iconoir-nav-arrow-down"
                />
              </a>
               
              <div
                class="dropdown__items hidden dropdown__items--fixed"
              >
                <div
                  class="select__search"
                >
                  <i
                    class="select__search-icon iconoir-search"
                  />
                   
                  <input
                    class="select__search-input"
                    placeholder="action.search"
                    tabindex="0"
                    type="text"
                  />
                </div>
                 
                <ul
                  class="select__items select__items--no-max-height"
                  tabindex=""
                >
                  <li
                    class="select__item select__item--no-options"
                  >
                    <a
                      class="select__item-link"
                    >
                      <div
                        class="select__item-name"
                      >
                        <!---->
                         
                        <!---->
                         
                        <span
                          class="select__item-name-text"
                          title="Name"
                        >
                          Name
                        </span>
                      </div>
                       
                      <!---->
                    </a>
                     
                    <i
                      class="select__item-active-icon iconoir-check"
                    />
                  </li>
                  <li
                    class="select__item select__item--no-options active"
                  >
                    <a
                      class="select__item-link"
                    >
                      <div
                        class="select__item-name"
                      >
                        <!---->
                         
                        <!---->
                         
                        <span
                          class="select__item-name-text"
                          title="Stars"
                        >
                          Stars
                        </span>
                      </div>
                       
                      <!---->
                    </a>
                     
                    <i
                      class="select__item-active-icon iconoir-check"
                    />
                  </li>
                  <li
                    class="select__item select__item--no-options"
                  >
                    <a
                      class="select__item-link"
                    >
                      <div
                        class="select__item-name"
                      >
                        <!---->
                         
                        <!---->
                         
                        <span
                          class="select__item-name-text"
                          title="Flag"
                        >
                          Flag
                        </span>
                      </div>
                       
                      <!---->
                    </a>
                     
                    <i
                      class="select__item-active-icon iconoir-check"
                    />
                  </li>
                </ul>
                 
                <!---->
                 
                <!---->
              </div>
            </div>
          </div>
           
          <div
            class="filters__type"
          >
            <div
              class="dropdown dropdown--small"
              tabindex=""
            >
              <a
                class="dropdown__selected"
              >
                <!---->
                 
                <!---->
                 
                <span
                  class="dropdown__selected-text"
                >
                  viewFilter.is
                </span>
                 
                <i
                  class="dropdown__toggle-icon iconoir-nav-arrow-down"
                />
              </a>
               
              <div
                class="dropdown__items dropdown__items--fixed"
                style="left: 0px; min-width: 0px; top: 0px; max-height: calc(100vh - 20px);"
              >
                <div
                  class="select__search"
                >
                  <i
                    class="select__search-icon iconoir-search"
                  />
                   
                  <input
                    class="select__search-input"
                    placeholder="action.search"
                    tabindex="0"
                    type="text"
                  />
                </div>
                 
                <ul
                  class="select__items select__items--no-max-height prevent-scroll"
                  tabindex=""
                >
                  <li
                    class="select__item select__item--no-options active hover"
                  >
                    <a
                      class="select__item-link"
                    >
                      <div
                        class="select__item-name"
                      >
                        <!---->
                         
                        <!---->
                         
                        <span
                          class="select__item-name-text"
                          title="viewFilter.is"
                        >
                          viewFilter.is
                        </span>
                      </div>
                       
                      <!---->
                    </a>
                     
                    <i
                      class="select__item-active-icon iconoir-check"
                    />
                  </li>
                  <li
                    class="select__item select__item--no-options"
                  >
                    <a
                      class="select__item-link"
                    >
                      <div
                        class="select__item-name"
                      >
                        <!---->
                         
                        <!---->
                         
                        <span
                          class="select__item-name-text"
                          title="viewFilter.isNot"
                        >
                          viewFilter.isNot
                        </span>
                      </div>
                       
                      <!---->
                    </a>
                     
                    <i
                      class="select__item-active-icon iconoir-check"
                    />
                  </li>
                  <li
                    class="select__item select__item--no-options"
                  >
                    <a
                      class="select__item-link"
                    >
                      <div
                        class="select__item-name"
                      >
                        <!---->
                         
                        <!---->
                         
                        <span
                          class="select__item-name-text"
                          title="viewFilter.higherThan"
                        >
                          viewFilter.higherThan
                        </span>
                      </div>
                       
                      <!---->
                    </a>
                     
                    <i
                      class="select__item-active-icon iconoir-check"
                    />
                  </li>
                  <li
                    class="select__item select__item--no-options"
                  >
                    <a
                      class="select__item-link"
                    >
                      <div
                        class="select__item-name"
                      >
                        <!---->
                         
                        <!---->
                         
                        <span
                          class="select__item-name-text"
                          title="viewFilter.lowerThan"
                        >
                          viewFilter.lowerThan
                        </span>
                      </div>
                       
                      <!---->
                    </a>
                     
                    <i
                      class="select__item-active-icon iconoir-check"
                    />
                  </li>
                </ul>
                 
                <!---->
                 
                <!---->
              </div>
            </div>
          </div>
           
          <div
            class="filters__value filters__value--with-after-input"
          >
            <div
              class="filters__value-rating"
            >
              <div
                class="rating color--dark-orange editing"
              >
                <i
                  class="rating__star baserow-icon-star rating__star--selected"
                />
                <i
                  class="rating__star baserow-icon-star rating__star--selected"
                />
                <i
                  class="rating__star baserow-icon-star"
                />
                <i
                  class="rating__star baserow-icon-star"
                />
                <i
                  class="rating__star baserow-icon-star"
                />
              </div>
            </div>
              
            <!---->
             
            <!---->
          </div>
           
          <a
            class="filters__remove"
          >
            <i
              class="iconoir-bin"
            />
          </a>
        </div>
      </div>
    </div>
     
  </div>
   
  <div
    class="filters__footer"
  >
    <div
      class="filters__actions"
    >
      <a
        class="filters__add"
      >
        <i
          class="filters__add-icon iconoir-plus"
        />
        
        viewFilterContext.addFilter
      </a>
       
      <a
        class="filters__add"
      >
        <i
          class="filters__add-icon iconoir-plus"
        />
        
        viewFilterContext.addFilterGroup
      </a>
    </div>
     
    <div>
      <div
        class="switch switch--small"
      >
        <div
          class="switch__label"
        >
          viewFilterContext.disableAllFilters
        </div>
      </div>
    </div>
  </div>
</div>
`;

exports[`ViewFilterForm component Test rating filter 2`] = `
<div
  class="filters__content"
>
  <!---->
   
  <div
    class="filters__items filters__items--with-padding filters__items--scrollable"
  >
    <div
      class="filters__item-wrapper"
    >
      <div
        class="filters__item filters__item--level-1"
      >
        <div>
          <span
            class="filters__operator-where"
          >
            viewFilterContext.where
          </span>
           
          <!---->
           
          <!---->
        </div>
         
        <div
          class="filters__condition-item"
        >
          <div
            class="filters__field"
          >
            <div
              class="dropdown dropdown--small"
              tabindex="0"
            >
              <a
                class="dropdown__selected"
              >
                <!---->
                 
                <!---->
                 
                <span
                  class="dropdown__selected-text"
                >
                  Stars
                </span>
                 
                <i
                  class="dropdown__toggle-icon iconoir-nav-arrow-down"
                />
              </a>
               
              <div
                class="dropdown__items hidden dropdown__items--fixed"
              >
                <div
                  class="select__search"
                >
                  <i
                    class="select__search-icon iconoir-search"
                  />
                   
                  <input
                    class="select__search-input"
                    placeholder="action.search"
                    tabindex="0"
                    type="text"
                  />
                </div>
                 
                <ul
                  class="select__items select__items--no-max-height"
                  tabindex=""
                >
                  <li
                    class="select__item select__item--no-options"
                  >
                    <a
                      class="select__item-link"
                    >
                      <div
                        class="select__item-name"
                      >
                        <!---->
                         
                        <!---->
                         
                        <span
                          class="select__item-name-text"
                          title="Name"
                        >
                          Name
                        </span>
                      </div>
                       
                      <!---->
                    </a>
                     
                    <i
                      class="select__item-active-icon iconoir-check"
                    />
                  </li>
                  <li
                    class="select__item select__item--no-options active"
                  >
                    <a
                      class="select__item-link"
                    >
                      <div
                        class="select__item-name"
                      >
                        <!---->
                         
                        <!---->
                         
                        <span
                          class="select__item-name-text"
                          title="Stars"
                        >
                          Stars
                        </span>
                      </div>
                       
                      <!---->
                    </a>
                     
                    <i
                      class="select__item-active-icon iconoir-check"
                    />
                  </li>
                  <li
                    class="select__item select__item--no-options"
                  >
                    <a
                      class="select__item-link"
                    >
                      <div
                        class="select__item-name"
                      >
                        <!---->
                         
                        <!---->
                         
                        <span
                          class="select__item-name-text"
                          title="Flag"
                        >
                          Flag
                        </span>
                      </div>
                       
                      <!---->
                    </a>
                     
                    <i
                      class="select__item-active-icon iconoir-check"
                    />
                  </li>
                </ul>
                 
                <!---->
                 
                <!---->
              </div>
            </div>
          </div>
           
          <div
            class="filters__type"
          >
            <div
              class="dropdown dropdown--small"
              tabindex="0"
            >
              <a
                class="dropdown__selected"
              >
                <!---->
                 
                <!---->
                 
                <span
                  class="dropdown__selected-text"
                >
                  viewFilter.is
                </span>
                 
                <i
                  class="dropdown__toggle-icon iconoir-nav-arrow-down"
                />
              </a>
               
              <div
                class="dropdown__items hidden dropdown__items--fixed"
                style="left: 0px; min-width: 0px; top: 0px; max-height: calc(100vh - 20px);"
              >
                <div
                  class="select__search"
                >
                  <i
                    class="select__search-icon iconoir-search"
                  />
                   
                  <input
                    class="select__search-input"
                    placeholder="action.search"
                    tabindex="0"
                    type="text"
                  />
                </div>
                 
                <ul
                  class="select__items select__items--no-max-height prevent-scroll"
                  tabindex=""
                >
                  <li
                    class="select__item select__item--no-options active hover"
                  >
                    <a
                      class="select__item-link"
                    >
                      <div
                        class="select__item-name"
                      >
                        <!---->
                         
                        <!---->
                         
                        <span
                          class="select__item-name-text"
                          title="viewFilter.is"
                        >
                          viewFilter.is
                        </span>
                      </div>
                       
                      <!---->
                    </a>
                     
                    <i
                      class="select__item-active-icon iconoir-check"
                    />
                  </li>
                  <li
                    class="select__item select__item--no-options"
                  >
                    <a
                      class="select__item-link"
                    >
                      <div
                        class="select__item-name"
                      >
                        <!---->
                         
                        <!---->
                         
                        <span
                          class="select__item-name-text"
                          title="viewFilter.isNot"
                        >
                          viewFilter.isNot
                        </span>
                      </div>
                       
                      <!---->
                    </a>
                     
                    <i
                      class="select__item-active-icon iconoir-check"
                    />
                  </li>
                  <li
                    class="select__item select__item--no-options"
                  >
                    <a
                      class="select__item-link"
                    >
                      <div
                        class="select__item-name"
                      >
                        <!---->
                         
                        <!---->
                         
                        <span
                          class="select__item-name-text"
                          title="viewFilter.higherThan"
                        >
                          viewFilter.higherThan
                        </span>
                      </div>
                       
                      <!---->
                    </a>
                     
                    <i
                      class="select__item-active-icon iconoir-check"
                    />
                  </li>
                  <li
                    class="select__item select__item--no-options"
                  >
                    <a
                      class="select__item-link"
                    >
                      <div
                        class="select__item-name"
                      >
                        <!---->
                         
                        <!---->
                         
                        <span
                          class="select__item-name-text"
                          title="viewFilter.lowerThan"
                        >
                          viewFilter.lowerThan
                        </span>
                      </div>
                       
                      <!---->
                    </a>
                     
                    <i
                      class="select__item-active-icon iconoir-check"
                    />
                  </li>
                </ul>
                 
                <!---->
                 
                <!---->
              </div>
            </div>
          </div>
           
          <div
            class="filters__value filters__value--with-after-input"
          >
            <div
              class="filters__value-rating"
            >
              <div
                class="rating color--dark-orange editing"
              >
                <i
                  class="rating__star baserow-icon-star rating__star--selected"
                />
                <i
                  class="rating__star baserow-icon-star rating__star--selected"
                />
                <i
                  class="rating__star baserow-icon-star rating__star--selected"
                />
                <i
                  class="rating__star baserow-icon-star rating__star--selected"
                />
                <i
                  class="rating__star baserow-icon-star rating__star--selected"
                />
              </div>
            </div>
              
            <!---->
             
            <!---->
          </div>
           
          <a
            class="filters__remove"
          >
            <i
              class="iconoir-bin"
            />
          </a>
        </div>
      </div>
    </div>
     
  </div>
   
  <div
    class="filters__footer"
  >
    <div
      class="filters__actions"
    >
      <a
        class="filters__add"
      >
        <i
          class="filters__add-icon iconoir-plus"
        />
        
        viewFilterContext.addFilter
      </a>
       
      <a
        class="filters__add"
      >
        <i
          class="filters__add-icon iconoir-plus"
        />
        
        viewFilterContext.addFilterGroup
      </a>
    </div>
     
    <div>
      <div
        class="switch switch--small"
      >
        <div
          class="switch__label"
        >
          viewFilterContext.disableAllFilters
        </div>
      </div>
    </div>
  </div>
</div>
`;
